Caderno de aulas - Aula_03.qmd
…
Um histograma é uma espécie de gráfico de barras que demonstra uma distribuição de frequências. No histograma, a base de cada uma das barras representa uma classe e a altura representa a quantidade ou frequência absoluta com que o valor de cada classe ocorre.

Carregando planilhas da nuvem em formato .csv

Para a criação desse gráfico, é importante que se tenha uma fonte confiável de dados, e que estes sejam de fácil acesso. Uma forma de importar esses dados é através de uma planilha no formato “.csv” da nuvem, o que nos permite acessar de qualquer lugar.

#Para remover as mensagens de erro, adicionar no cabeçalho as mensagens a seguir.
#warning : false
#message : false

cr <- read_csv("https://raw.githubusercontent.com/emdelponte/paper-coffee-rust-Ethiopia/master/data/survey_clean.csv")
cr

# A tibble: 405 × 13
    farm region zone       district      lon   lat altitude cultivar shade    
   <dbl> <chr>  <chr>      <chr>       <dbl> <dbl>    <dbl> <chr>    <chr>    
 1     1 SNNPR  Bench Maji Debub Bench  35.4  6.90     1100 Local    Sun      
 2     2 SNNPR  Bench Maji Debub Bench  35.4  6.90     1342 Mixture  Mid shade
 3     3 SNNPR  Bench Maji Debub Bench  35.4  6.90     1434 Mixture  Mid shade
 4     4 SNNPR  Bench Maji Debub Bench  35.4  6.90     1100 Local    Sun      
 5     5 SNNPR  Bench Maji Debub Bench  35.4  6.90     1400 Local    Sun      
 6     6 SNNPR  Bench Maji Debub Bench  35.4  6.90     1342 Mixture  Mid shade
 7     7 SNNPR  Bench Maji Debub Bench  35.4  6.90     1432 Mixture  Mid shade
 8     8 SNNPR  Bench Maji Debub Bench  35.4  6.90     1100 Local    Sun      
 9     9 SNNPR  Bench Maji Debub Bench  35.4  6.89     1400 Local    Sun      
10    10 SNNPR  Bench Maji Debub Bench  35.4  6.88     1342 Mixture  Mid shade
# ℹ 395 more rows
# ℹ 4 more variables: cropping_system <chr>, farm_management <chr>, inc <dbl>,
#   sev2 <dbl>
…
# ggsave("Imagens/Histograma03.png")

Criando subconjuntos

#criar um subconjunto através da seleção de variáveis

cr |> 
  select(farm, region, sev2)

# A tibble: 405 × 3
    farm region  sev2
   <dbl> <chr>  <dbl>
 1     1 SNNPR  55.6 
 2     2 SNNPR  17.9 
 3     3 SNNPR   8.25
 4     4 SNNPR  46.1 
 5     5 SNNPR  12.3 
 6     6 SNNPR  19.9 
 7     7 SNNPR  11.9 
 8     8 SNNPR  55.6 
 9     9 SNNPR  11.6 
10    10 SNNPR  11.4 
# ℹ 395 more rows

#restingindo o banco de cados à informação desejada.
cr2 <- cr |> 
  select(farm, region, sev2) |> 
  filter (region == "Oromia")
cr2

# A tibble: 165 × 3
    farm region  sev2
   <dbl> <chr>  <dbl>
 1   286 Oromia  7.63
 2   287 Oromia  9.39
 3   288 Oromia  1.30
 4   289 Oromia  9.79
 5   290 Oromia 18.5 
 6   291 Oromia 13.2 
 7   292 Oromia  5.60
 8   293 Oromia  1.06
 9   294 Oromia 17.6 
10   295 Oromia 15.4 
# ℹ 155 more rows
…
#Utiliza as funções 'select()" e "filter()" dp pacote **dplyr** para selecionar colunas e linhas, respectivamente.

# Filtra "Oromia"
cr_oromia <- cr |> 
  select(farm, region, cultivar, sev2) |> 
  filter (region == "Oromia")

# Filtra "SNNPR"
cr_pr <- cr |>
  select(farm, region, cultivar, sev2) |> 
  filter (region == "SNNPR")
  
cr_pr; cr_oromia

# A tibble: 240 × 4
    farm region cultivar  sev2
   <dbl> <chr>  <chr>    <dbl>
 1     1 SNNPR  Local    55.6 
 2     2 SNNPR  Mixture  17.9 
 3     3 SNNPR  Mixture   8.25
 4     4 SNNPR  Local    46.1 
 5     5 SNNPR  Local    12.3 
 6     6 SNNPR  Mixture  19.9 
 7     7 SNNPR  Mixture  11.9 
 8     8 SNNPR  Local    55.6 
 9     9 SNNPR  Local    11.6 
10    10 SNNPR  Mixture  11.4 
# ℹ 230 more rows

# A tibble: 165 × 4
    farm region cultivar  sev2
   <dbl> <chr>  <chr>    <dbl>
 1   286 Oromia Mixture   7.63
 2   287 Oromia Mixture   9.39
 3   288 Oromia Mixture   1.30
 4   289 Oromia Mixture   9.79
 5   290 Oromia Local    18.5 
 6   291 Oromia Mixture  13.2 
 7   292 Oromia Mixture   5.60
 8   293 Oromia Mixture   1.06
 9   294 Oromia Local    17.6 
10   295 Oromia Mixture  15.4 
# ℹ 155 more rows
…
