Caderno de aulas - aula_09
…
milho <- gsheet2tbl("https://docs.google.com/spreadsheets/d/1bq2N19DcZdtax2fQW9OHSGMR0X2__Z9T/edit#gid=1345524759")
milho

# A tibble: 48 × 5
   hybrid   block method index yield
   <chr>    <dbl> <chr>  <dbl> <dbl>
 1 30F53 HX     1 pin     21.1 12920
 2 30F53 HX     2 pin     21.1  9870
 3 30F53 HX     3 pin     23.3  8920
 4 30F53 HX     4 pin     35.6 13120
 5 30F53 YH     1 pin     21.1 12060
 6 30F53 YH     2 pin     22.2  7860
 7 30F53 YH     3 pin     27.3  7410
 8 30F53 YH     4 pin     27.8 10300
 9 30K64        1 pin     20   11700
10 30K64        2 pin     20   10700
# ℹ 38 more rows
…
Residual standard error: 745.8 on 380 degrees of freedom
Multiple R-squared:  0.04833,   Adjusted R-squared:  0.04582 
F-statistic:  19.3 on 1 and 380 DF,  p-value: 1.452e-05

Obs.: Código muito importante para agrupar vários experimentos. Já detalha as médias para cada variável resposta.

fit_all <- wm |> 
  group_by(study) |> 
  do(tidy(lm(.$yld ~ .$inc), conf.int = TRUE))
fit_all

# A tibble: 70 × 8
# Groups:   study [35]
   study term        estimate std.error statistic  p.value conf.low conf.high
   <dbl> <chr>          <dbl>     <dbl>     <dbl>    <dbl>    <dbl>     <dbl>
 1     1 (Intercept)  3329.       86.8      38.3  4.60e-13   3138.    3520.  
 2     1 .$inc         -14.2       2.08     -6.85 2.78e- 5    -18.8     -9.64
 3     2 (Intercept)  2682.       48.6      55.2  8.55e-15   2575.    2789.  
 4     2 .$inc          -6.93      1.49     -4.66 6.89e- 4    -10.2     -3.66
 5     3 (Intercept)  4017.       61.6      65.2  1.37e-15   3882.    4153.  
 6     3 .$inc         -18.6       1.71    -10.9  3.11e- 7    -22.4    -14.9 
 7     4 (Intercept)  2814.      151.       18.6  1.15e- 9   2481.    3147.  
 8     4 .$inc         -43.5      16.8      -2.58 2.56e- 2    -80.5     -6.38
 9     5 (Intercept)  3317.      234.       14.2  2.07e- 8   2802.    3832.  
10     5 .$inc         -21.2       5.69     -3.72 3.36e- 3    -33.7     -8.67
# ℹ 60 more rows

Mofo 2

mofo2 <- wm |> 
  group_by(study) |> 
  do(tidy(lm(.$yld ~ .$inc), conf.int = TRUE))
mofo2

# A tibble: 70 × 8
# Groups:   study [35]
   study term        estimate std.error statistic  p.value conf.low conf.high
   <dbl> <chr>          <dbl>     <dbl>     <dbl>    <dbl>    <dbl>     <dbl>
 1     1 (Intercept)  3329.       86.8      38.3  4.60e-13   3138.    3520.  
 2     1 .$inc         -14.2       2.08     -6.85 2.78e- 5    -18.8     -9.64
 3     2 (Intercept)  2682.       48.6      55.2  8.55e-15   2575.    2789.  
 4     2 .$inc          -6.93      1.49     -4.66 6.89e- 4    -10.2     -3.66
 5     3 (Intercept)  4017.       61.6      65.2  1.37e-15   3882.    4153.  
 6     3 .$inc         -18.6       1.71    -10.9  3.11e- 7    -22.4    -14.9 
 7     4 (Intercept)  2814.      151.       18.6  1.15e- 9   2481.    3147.  
 8     4 .$inc         -43.5      16.8      -2.58 2.56e- 2    -80.5     -6.38
 9     5 (Intercept)  3317.      234.       14.2  2.07e- 8   2802.    3832.  
10     5 .$inc         -21.2       5.69     -3.72 3.36e- 3    -33.7     -8.67
# ℹ 60 more rows
…
Residual standard error: 745.8 on 380 degrees of freedom
Multiple R-squared:  0.04833,   Adjusted R-squared:  0.04582 
F-statistic:  19.3 on 1 and 380 DF,  p-value: 1.452e-05

fit_all <- wm |> 
  group_by(study) |> 
  do(tidy(lm(.$yld ~ .$inc), conf.int = T))
fit_all

# A tibble: 70 × 8
# Groups:   study [35]
   study term        estimate std.error statistic  p.value conf.low conf.high
   <dbl> <chr>          <dbl>     <dbl>     <dbl>    <dbl>    <dbl>     <dbl>
 1     1 (Intercept)  3329.       86.8      38.3  4.60e-13   3138.    3520.  
 2     1 .$inc         -14.2       2.08     -6.85 2.78e- 5    -18.8     -9.64
 3     2 (Intercept)  2682.       48.6      55.2  8.55e-15   2575.    2789.  
 4     2 .$inc          -6.93      1.49     -4.66 6.89e- 4    -10.2     -3.66
 5     3 (Intercept)  4017.       61.6      65.2  1.37e-15   3882.    4153.  
 6     3 .$inc         -18.6       1.71    -10.9  3.11e- 7    -22.4    -14.9 
 7     4 (Intercept)  2814.      151.       18.6  1.15e- 9   2481.    3147.  
 8     4 .$inc         -43.5      16.8      -2.58 2.56e- 2    -80.5     -6.38
 9     5 (Intercept)  3317.      234.       14.2  2.07e- 8   2802.    3832.  
10     5 .$inc         -21.2       5.69     -3.72 3.36e- 3    -33.7     -8.67
# ℹ 60 more rows
…
